주식데이터 Cleaning 및 Manipulating | Rock 'n' Roh
…
특정시각 (9시 1분 30초) 데이터만 뽑아내기

## # A tibble: 4 x 10
##   SYMBOL PRICE  SIZE RETURN CUM_SIZE  OPEN  HIGH   LOW CLOSE VOLUME
##   <chr>  <dbl> <dbl>  <dbl>    <dbl> <dbl> <dbl> <dbl> <dbl>  <dbl>
## 1 a       25.2  1894   0.02    19096  24.7  25.9  24    24.6   7035
## 2 b       25     510  -0.04    22046  25.6  26    24.4  26    10203
## 3 c       24.8   778  -0.01    14542  25.6  25.7  24.2  25     5397
## 4 d       24.5   736   0       24100  25.4  25.4  24.2  24.4  11386

특정변수(e.g. CUMSIZE) 데이터만 뽑아내기

##                     a_CUMSIZE b_CUMSIZE c_CUMSIZE d_CUMSIZE
## 2021-02-10 08:59:00       804      1057      1035      1186
## 2021-02-10 09:00:00      2753      4243      4006      6387
## 2021-02-10 09:01:00     11203     11520      8383     13100
## 2021-02-10 09:02:00     19096     22046     14542     24100
## 2021-02-10 09:03:00     29299     32096     25895     30121
## 2021-02-10 09:04:00     38074     42421     35994     37361
## 2021-02-10 09:05:00     50177     49380     45551     46682
## 2021-02-10 09:06:00     60325     58576     57146     57228
## 2021-02-10 09:07:00     74214     78809     74476     74221
## 2021-02-10 09:08:00     96439     93411     94674     96125
## 2021-02-10 09:09:00    113258    112692    111750    106695
## 2021-02-10 09:10:00    130272    130752    125319    128332
## 2021-02-10 09:11:00    146698    144698    137938    145331
## 2021-02-10 09:12:00    169807    160840    159068    161871
## 2021-02-10 09:13:00    191094    182910    178741    182647
## 2021-02-10 09:14:00    213379    203789    209177    207248
## 2021-02-10 09:15:00    242385    226962    231152    236469
## 2021-02-10 09:16:00    266521    257290    255988    281434
## 2021-02-10 09:17:00    291544    288022    282345    313128
## 2021-02-10 09:18:00    317701    318782    315542    348439
## 2021-02-10 09:19:00    349159    351140    343622    377842
## 2021-02-10 09:20:00    368912    377258    359705    389858
## 2021-02-10 09:21:00    381319    384669    370520    401116
## 2021-02-10 09:22:00    394076    392737    380886    413790
## 2021-02-10 09:23:00    404279    399504    389862    422121
##  [ reached getOption("max.print") -- omitted 144 rows ]
…
